{
"type": "FeatureCollection",
"name": "mordor",
"crs": { "type": "name", "properties": { "name": "urn:ogc:def:crs:OGC:1.3:CRS84" } },
"features": [
{ "type": "Feature", "properties": { "name": "Tour De Mordor" }, "geometry": { "type": "MultiLineString", "coordinates": [ [ [ -77.46723, 37.55602, 64.8 ], [ -77.46719, 37.55609, 64.8 ], [ -77.46655, 37.55588, 64.5 ], [ -77.46666, 37.55568, 64.5 ], [ -77.46666, 37.55568, 64.5 ], [ -77.46706, 37.55501, 63.9 ], [ -77.46748, 37.55426, 63.9 ], [ -77.46789, 37.55351, 64.2 ], [ -77.4683, 37.55277, 65.0 ], [ -77.46865, 37.55216, 65.8 ], [ -77.469, 37.55155, 66.3 ], [ -77.46934, 37.55095, 66.8 ], [ -77.46975, 37.55019, 66.8 ], [ -77.47016, 37.54943, 66.8 ], [ -77.4694, 37.54916, 66.9 ], [ -77.4694, 37.54915, 66.9 ], [ -77.4694, 37.54916, 66.9 ], [ -77.46842, 37.54881, 67.1 ], [ -77.46745, 37.54846, 66.7 ], [ -77.46647, 37.54811, 66.0 ], [ -77.46657, 37.54804, 66.1 ], [ -77.46657, 37.54804, 66.1 ], [ -77.46691, 37.54743, 65.9 ], [ -77.46693, 37.5473, 65.7 ], [ -77.46702, 37.54714, 65.4 ], [ -77.46724, 37.54674, 64.9 ], [ -77.46733, 37.54659, 64.6 ], [ -77.46707, 37.54651, 64.4 ], [ -77.46669, 37.54638, 64.6 ], [ -77.46669, 37.54638, 64.6 ], [ -77.46568, 37.54602, 64.3 ], [ -77.46466, 37.54567, 64.1 ], [ -77.4638, 37.54532, 63.7 ], [ -77.46295, 37.54497, 63.7 ], [ -77.46209, 37.54462, 62.4 ], [ -77.46151, 37.54445, 60.7 ], [ -77.46092, 37.54427, 60.1 ], [ -77.46049, 37.5441, 59.7 ], [ -77.45974, 37.54384, 58.8 ], [ -77.45899, 37.54359, 57.7 ], [ -77.45821, 37.5433, 57.4 ], [ -77.45743, 37.54301, 54.1 ], [ -77.45687, 37.54274, 52.7 ], [ -77.45638, 37.54247, 51.9 ], [ -77.45589, 37.54221, 51.3 ], [ -77.45587, 37.54216, 51.3 ], [ -77.45566, 37.54206, 50.4 ], [ -77.455621, 37.541987, 50.0 ], [ -77.45557, 37.54193, 49.5 ], [ -77.45545, 37.5419, 49.1 ], [ -77.45537, 37.54188, 48.9 ], [ -77.45526, 37.5419, 48.9 ], [ -77.4551, 37.54191, 49.0 ], [ -77.45464, 37.54185, 48.3 ], [ -77.45375, 37.54185, 49.2 ], [ -77.45286, 37.54184, 52.1 ], [ -77.45249, 37.54184, 51.9 ], [ -77.45166, 37.54183, 51.7 ], [ -77.45167, 37.54102, 50.7 ], [ -77.45169, 37.54021, 50.2 ], [ -77.4517, 37.53939, 49.8 ], [ -77.45171, 37.53858, 48.0 ], [ -77.45173, 37.53777, 47.9 ], [ -77.45174, 37.53696, 47.6 ], [ -77.45175, 37.53615, 45.2 ], [ -77.45177, 37.53533, 43.2 ], [ -77.45082, 37.53542, 43.3 ], [ -77.45082, 37.53542, 43.3 ], [ -77.45053, 37.53545, 42.5 ], [ -77.4497, 37.53547, 37.0 ], [ -77.44953, 37.53549, 36.8 ], [ -77.44921, 37.53555, 36.6 ], [ -77.44897, 37.53562, 36.5 ], [ -77.44888, 37.53566, 36.6 ], [ -77.4483, 37.5361, 36.1 ], [ -77.44791, 37.53644, 34.9 ], [ -77.44753, 37.53678, 33.7 ], [ -77.44698, 37.53735, 33.0 ], [ -77.44644, 37.53793, 29.3 ], [ -77.44597, 37.53842, 34.9 ], [ -77.44551, 37.53891, 38.3 ], [ -77.44504, 37.53939, 38.8 ], [ -77.44449, 37.53906, 45.3 ], [ -77.44394, 37.53873, 44.6 ], [ -77.44395, 37.53872, 44.6 ], [ -77.44394, 37.53873, 44.6 ], [ -77.44315, 37.53825, 40.8 ], [ -77.44237, 37.53777, 30.8 ], [ -77.44176, 37.53741, 25.8 ], [ -77.44116, 37.53705, 24.4 ], [ -77.44055, 37.53669, 23.3 ], [ -77.43988, 37.53629, 23.1 ], [ -77.43921, 37.5359, 23.1 ], [ -77.43854, 37.5355, 23.3 ], [ -77.43784, 37.53511, 23.4 ], [ -77.43719, 37.53472, 19.4 ], [ -77.43654, 37.53434, 14.0 ], [ -77.4363, 37.53417, 12.4 ], [ -77.43627, 37.53417, 12.3 ], [ -77.43626, 37.53397, 11.1 ], [ -77.43606, 37.53383, 9.4 ], [ -77.43571, 37.5336, 8.9 ], [ -77.43503, 37.53316, 6.3 ], [ -77.43434, 37.53273, 6.1 ], [ -77.43423, 37.5327, 6.1 ], [ -77.43401, 37.53276, 6.3 ], [ -77.43384, 37.53288, 6.6 ], [ -77.43374, 37.53307, 7.0 ], [ -77.43362, 37.5333, 7.5 ], [ -77.43347, 37.53365, 8.4 ], [ -77.43321, 37.53355, 8.1 ], [ -77.43308, 37.53357, 8.1 ], [ -77.43287, 37.53345, 7.9 ], [ -77.43299, 37.53313, 7.3 ], [ -77.43299, 37.53313, 7.3 ], [ -77.433, 37.5331, 7.3 ], [ -77.43309, 37.5332, 7.5 ], [ -77.43303, 37.53334, 7.7 ], [ -77.43304, 37.53336, 7.8 ], [ -77.43311, 37.53319, 7.5 ], [ -77.43307, 37.53312, 7.3 ], [ -77.433, 37.53306, 7.2 ], [ -77.43273, 37.53299, 7.2 ], [ -77.43242, 37.53284, 7.0 ], [ -77.43187, 37.5325, 6.7 ], [ -77.43179, 37.53242, 6.6 ], [ -77.43145, 37.53225, 6.5 ], [ -77.43145, 37.53225, 6.5 ], [ -77.43115, 37.53217, 6.4 ], [ -77.431, 37.53229, 6.5 ], [ -77.43061, 37.53225, 6.4 ], [ -77.43049, 37.53213, 6.3 ], [ -77.43022, 37.53195, 6.2 ], [ -77.43014, 37.53203, 6.2 ], [ -77.43007, 37.53206, 6.3 ], [ -77.43, 37.53199, 6.2 ], [ -77.42993, 37.53196, 6.2 ], [ -77.42974, 37.53194, 6.2 ], [ -77.42952, 37.53184, 6.1 ], [ -77.42931, 37.53179, 6.2 ], [ -77.42911, 37.53177, 6.2 ], [ -77.4289, 37.53163, 6.1 ], [ -77.4289, 37.53163, 6.1 ], [ -77.42882, 37.53157, 6.1 ], [ -77.42858, 37.53147, 6.1 ], [ -77.42852, 37.53146, 6.1 ], [ -77.42845, 37.53149, 6.3 ], [ -77.42841, 37.53148, 6.3 ], [ -77.42779, 37.53105, 6.2 ], [ -77.42726, 37.53073, 5.6 ], [ -77.42669, 37.53037, 5.4 ], [ -77.42612, 37.53, 5.4 ], [ -77.42547, 37.52957, 5.3 ], [ -77.42482, 37.52915, 5.6 ], [ -77.42478, 37.52913, 5.8 ], [ -77.42461, 37.52913, 6.7 ], [ -77.42442, 37.52905, 7.5 ], [ -77.42411, 37.52884, 7.7 ], [ -77.42346, 37.52839, 9.6 ], [ -77.4228, 37.52795, 9.7 ], [ -77.42214, 37.5275, 8.5 ], [ -77.42149, 37.52705, 4.5 ], [ -77.42121, 37.52684, 4.4 ], [ -77.42117, 37.52677, 4.4 ], [ -77.42117, 37.52667, 4.2 ], [ -77.42095, 37.52649, 4.3 ], [ -77.42075, 37.52617, 4.2 ], [ -77.42066, 37.52622, 4.4 ], [ -77.4206, 37.52622, 4.5 ], [ -77.42049, 37.52627, 4.7 ], [ -77.42044, 37.52626, 4.8 ], [ -77.42008, 37.52581, 5.0 ], [ -77.41973, 37.52537, 5.1 ], [ -77.41954, 37.52518, 5.3 ], [ -77.41952, 37.52511, 5.1 ], [ -77.41899, 37.52445, 5.3 ], [ -77.41847, 37.5238, 5.1 ], [ -77.41846, 37.52376, 5.0 ], [ -77.41857, 37.52364, 4.3 ], [ -77.41858, 37.52359, 4.1 ], [ -77.41852, 37.52332, 3.6 ], [ -77.41844, 37.52319, 2.9 ], [ -77.4179, 37.5227, 3.4 ], [ -77.41752, 37.52247, 3.6 ], [ -77.41734, 37.52227, 3.7 ], [ -77.41722, 37.52209, 3.9 ], [ -77.41695, 37.52161, 4.6 ], [ -77.41669, 37.52112, 4.7 ], [ -77.41655, 37.52087, 4.9 ], [ -77.41649, 37.52072, 5.3 ], [ -77.41636, 37.52012, 4.9 ], [ -77.41629, 37.51957, 4.5 ], [ -77.41627, 37.51874, 4.2 ], [ -77.41625, 37.5179, 5.4 ], [ -77.41619, 37.51714, 7.4 ], [ -77.41612, 37.51652, 7.8 ], [ -77.41605, 37.5159, 8.2 ], [ -77.41606, 37.51512, 8.1 ], [ -77.41606, 37.51433, 9.3 ], [ -77.41603, 37.5141, 8.8 ], [ -77.4159, 37.51367, 12.0 ], [ -77.41587, 37.51353, 13.4 ], [ -77.41586, 37.51321, 12.4 ], [ -77.4159, 37.51273, 7.7 ], [ -77.41597, 37.51223, 6.7 ], [ -77.41599, 37.51172, 6.6 ], [ -77.41609, 37.51087, 6.5 ], [ -77.41607, 37.51041, 6.2 ], [ -77.41611, 37.50967, 4.7 ], [ -77.41607, 37.50955, 4.9 ], [ -77.41593, 37.50943, 5.6 ], [ -77.41581, 37.50924, 5.9 ], [ -77.41564, 37.50855, 8.0 ], [ -77.41548, 37.50821, 8.8 ], [ -77.41536, 37.50805, 7.3 ], [ -77.41525, 37.508, 6.3 ], [ -77.41506, 37.50797, 5.8 ], [ -77.41477, 37.50795, 6.1 ], [ -77.41426, 37.5079, 9.6 ], [ -77.41388, 37.50795, 9.2 ], [ -77.41358, 37.50795, 15.2 ], [ -77.41331, 37.50802, 15.7 ], [ -77.41316, 37.50804, 15.1 ], [ -77.41299, 37.50798, 11.9 ], [ -77.41282, 37.50785, 10.6 ], [ -77.41268, 37.50758, 8.7 ], [ -77.41253, 37.50743, 8.5 ], [ -77.41226, 37.50695, 8.3 ], [ -77.4122, 37.50676, 7.6 ], [ -77.41211, 37.50659, 7.9 ], [ -77.412, 37.50639, 8.4 ], [ -77.4118, 37.50609, 9.1 ], [ -77.41142, 37.50539, 16.1 ], [ -77.41104, 37.50468, 20.4 ], [ -77.41061, 37.50393, 25.1 ], [ -77.41019, 37.50317, 27.9 ], [ -77.41016, 37.50311, 27.9 ], [ -77.41016, 37.50294, 27.2 ], [ -77.41014, 37.50287, 27.0 ], [ -77.40975, 37.5022, 29.1 ], [ -77.4096, 37.50199, 30.0 ], [ -77.40934, 37.50166, 31.0 ], [ -77.4092, 37.50156, 32.6 ], [ -77.40911, 37.50141, 33.6 ], [ -77.40885, 37.5011, 34.4 ], [ -77.40838, 37.50065, 37.9 ], [ -77.40796, 37.50032, 39.7 ], [ -77.40741, 37.49992, 38.9 ], [ -77.40731, 37.49981, 38.5 ], [ -77.40701, 37.49965, 37.9 ], [ -77.40662, 37.49936, 37.4 ], [ -77.40651, 37.49916, 36.7 ], [ -77.40613, 37.49878, 38.9 ], [ -77.40608, 37.49868, 39.4 ], [ -77.40604, 37.49851, 40.0 ], [ -77.40584, 37.49834, 41.0 ], [ -77.40579, 37.49828, 41.4 ], [ -77.40563, 37.49796, 43.6 ], [ -77.40545, 37.49741, 46.4 ], [ -77.40536, 37.49667, 46.5 ], [ -77.40523, 37.49605, 46.1 ], [ -77.4051, 37.49543, 45.2 ], [ -77.40495, 37.49465, 44.2 ], [ -77.4048, 37.49388, 45.6 ], [ -77.40464, 37.49315, 46.0 ], [ -77.40448, 37.49242, 45.9 ], [ -77.40432, 37.49169, 48.1 ], [ -77.40416, 37.49096, 48.8 ], [ -77.40411, 37.49049, 48.8 ], [ -77.40408, 37.49044, 48.8 ], [ -77.40405, 37.49042, 48.7 ], [ -77.40383, 37.49043, 48.6 ], [ -77.40379, 37.49041, 48.6 ], [ -77.40368, 37.49019, 48.5 ], [ -77.40355, 37.48998, 48.5 ], [ -77.40319, 37.48952, 48.5 ], [ -77.40297, 37.48928, 47.6 ], [ -77.40252, 37.48893, 47.9 ], [ -77.40244, 37.48881, 48.1 ], [ -77.40164, 37.48824, 48.5 ], [ -77.40083, 37.48767, 48.7 ], [ -77.40003, 37.48709, 48.7 ], [ -77.39923, 37.48652, 48.7 ], [ -77.39843, 37.48595, 48.5 ], [ -77.3978, 37.48551, 48.5 ], [ -77.39718, 37.48507, 48.7 ], [ -77.39655, 37.48464, 48.5 ], [ -77.3963, 37.48431, 48.5 ], [ -77.39612, 37.48416, 48.5 ], [ -77.39604, 37.4841, 48.5 ], [ -77.39582, 37.48422, 48.5 ], [ -77.39574, 37.4842, 48.5 ], [ -77.39555, 37.48401, 48.5 ], [ -77.3951, 37.48339, 48.2 ], [ -77.39464, 37.48278, 48.0 ], [ -77.39419, 37.48217, 48.0 ], [ -77.39387, 37.48177, 47.4 ], [ -77.39355, 37.48137, 46.7 ], [ -77.39305, 37.48072, 45.6 ], [ -77.39255, 37.48007, 45.5 ], [ -77.39199, 37.47932, 44.3 ], [ -77.39143, 37.47857, 43.4 ], [ -77.39105, 37.47792, 43.7 ], [ -77.39089, 37.47758, 43.8 ], [ -77.3906, 37.47675, 43.2 ], [ -77.3903, 37.47592, 42.2 ], [ -77.3902, 37.47554, 41.8 ], [ -77.38992, 37.47471, 41.8 ], [ -77.38965, 37.47387, 42.7 ], [ -77.38937, 37.47304, 43.0 ], [ -77.3891, 37.4722, 42.1 ], [ -77.38883, 37.47155, 44.2 ], [ -77.38847, 37.47093, 45.1 ], [ -77.38829, 37.4707, 45.3 ], [ -77.3878, 37.4702, 44.8 ], [ -77.38713, 37.46965, 43.6 ], [ -77.38647, 37.4691, 41.9 ], [ -77.3858, 37.46855, 41.3 ], [ -77.38513, 37.468, 40.4 ], [ -77.38466, 37.46761, 40.0 ], [ -77.38418, 37.46723, 39.1 ], [ -77.38388, 37.46695, 38.5 ], [ -77.3837, 37.46668, 37.1 ], [ -77.38359, 37.46657, 36.8 ], [ -77.38301, 37.46597, 31.5 ], [ -77.38297, 37.4659, 31.3 ], [ -77.38266, 37.4656, 30.3 ], [ -77.38252, 37.46548, 29.5 ], [ -77.38191, 37.4648, 36.1 ], [ -77.38129, 37.46412, 37.8 ], [ -77.38067, 37.46345, 39.1 ], [ -77.38005, 37.46277, 40.3 ], [ -77.37943, 37.46209, 41.4 ], [ -77.37917, 37.46185, 41.1 ], [ -77.37867, 37.46132, 40.5 ], [ -77.37818, 37.46088, 40.1 ], [ -77.378, 37.46063, 39.0 ], [ -77.37786, 37.46049, 38.1 ], [ -77.37726, 37.46, 32.3 ], [ -77.37711, 37.45984, 33.3 ], [ -77.37702, 37.45969, 34.2 ], [ -77.37698, 37.4596, 34.8 ], [ -77.37668, 37.45925, 37.1 ], [ -77.37657, 37.45908, 38.6 ], [ -77.37607, 37.45854, 42.7 ], [ -77.37556, 37.45801, 45.7 ], [ -77.37506, 37.45747, 47.1 ], [ -77.37458, 37.45698, 46.3 ], [ -77.3741, 37.45649, 43.1 ], [ -77.37361, 37.456, 45.3 ], [ -77.37285, 37.45539, 46.6 ], [ -77.37227, 37.45505, 45.6 ], [ -77.37155, 37.45469, 44.9 ], [ -77.37083, 37.45433, 44.3 ], [ -77.37052, 37.45426, 44.2 ], [ -77.37007, 37.45403, 43.9 ], [ -77.36943, 37.45367, 44.0 ], [ -77.3688, 37.45331, 44.4 ], [ -77.36807, 37.45283, 45.3 ], [ -77.36734, 37.45235, 44.6 ], [ -77.36695, 37.45207, 44.6 ], [ -77.36611, 37.45151, 44.9 ], [ -77.36528, 37.45095, 45.4 ], [ -77.36445, 37.4504, 44.6 ], [ -77.36362, 37.44984, 45.1 ], [ -77.36278, 37.44928, 45.4 ], [ -77.36195, 37.44872, 45.5 ], [ -77.36145, 37.44843, 45.5 ], [ -77.36048, 37.44803, 45.4 ], [ -77.35951, 37.44763, 45.1 ], [ -77.35854, 37.44724, 44.8 ], [ -77.35757, 37.44684, 44.4 ], [ -77.3573, 37.44671, 44.2 ], [ -77.35642, 37.44635, 44.6 ], [ -77.35555, 37.446, 44.7 ], [ -77.35467, 37.44564, 44.3 ], [ -77.35371, 37.44528, 44.0 ], [ -77.35274, 37.44491, 43.7 ], [ -77.35178, 37.44454, 43.5 ], [ -77.35161, 37.44451, 43.5 ], [ -77.35157, 37.44447, 43.5 ], [ -77.35129, 37.44438, 43.8 ], [ -77.35121, 37.44439, 43.9 ], [ -77.35114, 37.44438, 43.9 ], [ -77.351, 37.44428, 44.0 ], [ -77.35064, 37.44412, 44.3 ], [ -77.3501, 37.4439, 45.0 ], [ -77.34955, 37.44369, 44.8 ], [ -77.34872, 37.4434, 44.3 ], [ -77.3486, 37.44339, 44.2 ], [ -77.3485, 37.44337, 44.2 ], [ -77.34828, 37.44324, 44.1 ], [ -77.348, 37.44315, 43.9 ], [ -77.34791, 37.4431, 43.8 ], [ -77.34718, 37.44285, 43.4 ], [ -77.34646, 37.44259, 43.1 ], [ -77.34574, 37.44234, 42.9 ], [ -77.34497, 37.44201, 42.6 ], [ -77.34435, 37.4417, 42.4 ], [ -77.34417, 37.44168, 42.4 ], [ -77.34404, 37.44171, 42.4 ], [ -77.34397, 37.44175, 42.4 ], [ -77.3435, 37.44231, 42.4 ], [ -77.34347, 37.44289, 42.7 ], [ -77.34343, 37.44347, 43.0 ], [ -77.34376, 37.44418, 42.6 ], [ -77.34416, 37.44492, 42.2 ], [ -77.34419, 37.44502, 42.1 ], [ -77.34419, 37.44508, 42.1 ], [ -77.34412, 37.44521, 42.0 ], [ -77.34393, 37.44536, 41.9 ], [ -77.34341, 37.44578, 41.7 ], [ -77.34289, 37.44621, 40.7 ], [ -77.34225, 37.44693, 39.4 ], [ -77.34191, 37.44711, 39.7 ], [ -77.34148, 37.44743, 40.2 ], [ -77.34104, 37.44774, 40.7 ], [ -77.34037, 37.44829, 41.5 ], [ -77.34024, 37.44849, 41.4 ], [ -77.34028, 37.44907, 41.5 ], [ -77.34032, 37.44965, 41.3 ], [ -77.34027, 37.45017, 40.3 ], [ -77.33973, 37.45067, 39.2 ], [ -77.33915, 37.45114, 38.8 ], [ -77.33882, 37.45158, 38.7 ], [ -77.33879, 37.45207, 38.2 ], [ -77.33888, 37.45222, 37.9 ], [ -77.33899, 37.45232, 37.5 ], [ -77.3391, 37.45246, 37.0 ], [ -77.33911, 37.45258, 36.9 ], [ -77.33905, 37.45273, 36.9 ], [ -77.33893, 37.45295, 37.1 ], [ -77.3388, 37.45315, 37.1 ], [ -77.33878, 37.45321, 37.1 ], [ -77.33882, 37.45329, 37.0 ], [ -77.33971, 37.45344, 33.0 ], [ -77.33997, 37.45347, 33.9 ], [ -77.34018, 37.45347, 34.7 ], [ -77.34043, 37.45344, 35.4 ], [ -77.34076, 37.45344, 37.9 ], [ -77.34075, 37.45351, 37.2 ], [ -77.34033, 37.45412, 32.8 ], [ -77.33991, 37.45474, 32.8 ], [ -77.33948, 37.45537, 32.8 ], [ -77.3394, 37.45545, 32.8 ], [ -77.33931, 37.45551, 32.8 ], [ -77.33913, 37.45562, 32.9 ], [ -77.33901, 37.45567, 33.4 ], [ -77.33885, 37.45571, 33.4 ], [ -77.33804, 37.45585, 32.4 ], [ -77.33774, 37.45591, 30.5 ], [ -77.33761, 37.45596, 30.3 ], [ -77.33748, 37.45604, 31.5 ], [ -77.33717, 37.45633, 34.5 ], [ -77.33704, 37.45641, 35.5 ], [ -77.33681, 37.45652, 36.5 ], [ -77.33655, 37.45658, 36.8 ], [ -77.33614, 37.45662, 36.2 ], [ -77.33509, 37.4565, 30.0 ], [ -77.33494, 37.4565, 29.6 ], [ -77.33461, 37.45657, 29.3 ], [ -77.33442, 37.45658, 28.8 ], [ -77.33385, 37.45648, 28.3 ], [ -77.33358, 37.45642, 27.8 ], [ -77.33343, 37.45634, 27.3 ], [ -77.33327, 37.45621, 27.1 ], [ -77.33318, 37.45608, 26.9 ], [ -77.33308, 37.45562, 27.3 ], [ -77.33293, 37.45498, 28.0 ], [ -77.33278, 37.45433, 28.6 ], [ -77.33246, 37.45353, 29.5 ], [ -77.33238, 37.45342, 29.4 ], [ -77.33227, 37.45332, 29.2 ], [ -77.33218, 37.45328, 28.9 ], [ -77.33113, 37.45302, 29.6 ], [ -77.33097, 37.45296, 28.9 ], [ -77.33087, 37.45289, 28.6 ], [ -77.33073, 37.45278, 28.1 ], [ -77.33062, 37.45262, 28.2 ], [ -77.33057, 37.45241, 28.9 ], [ -77.33055, 37.45219, 29.7 ], [ -77.33044, 37.45199, 29.4 ], [ -77.33035, 37.45189, 28.8 ], [ -77.33019, 37.45179, 27.3 ], [ -77.32939, 37.45154, 27.3 ], [ -77.32859, 37.45129, 27.7 ], [ -77.32824, 37.45126, 25.5 ], [ -77.32797, 37.45119, 25.1 ], [ -77.32778, 37.45105, 25.5 ], [ -77.32759, 37.4508, 26.1 ], [ -77.3275, 37.45064, 26.4 ], [ -77.32745, 37.45051, 26.7 ], [ -77.32735, 37.4499, 27.7 ], [ -77.32694, 37.44931, 28.3 ], [ -77.32653, 37.44872, 25.5 ], [ -77.32615, 37.44837, 23.7 ], [ -77.32577, 37.44802, 22.2 ], [ -77.32532, 37.44764, 20.5 ], [ -77.32488, 37.44726, 19.5 ], [ -77.32448, 37.44688, 20.0 ], [ -77.3244, 37.44671, 20.3 ], [ -77.32443, 37.44651, 20.4 ], [ -77.32484, 37.44607, 21.1 ], [ -77.32525, 37.44564, 21.4 ], [ -77.32552, 37.44529, 21.0 ], [ -77.3257, 37.44455, 20.3 ], [ -77.32583, 37.44419, 20.3 ], [ -77.32598, 37.44393, 20.3 ], [ -77.32634, 37.44361, 20.3 ], [ -77.32674, 37.44342, 20.4 ], [ -77.32691, 37.44327, 20.3 ], [ -77.32722, 37.44283, 18.7 ], [ -77.32753, 37.44239, 18.3 ], [ -77.32783, 37.44206, 20.2 ], [ -77.32834, 37.44161, 22.7 ], [ -77.32886, 37.44115, 23.4 ], [ -77.32894, 37.44106, 23.5 ], [ -77.32941, 37.44054, 24.2 ], [ -77.32948, 37.44048, 24.3 ], [ -77.32958, 37.44032, 24.6 ], [ -77.32961, 37.44015, 25.0 ], [ -77.32968, 37.43998, 24.6 ], [ -77.33008, 37.43948, 25.8 ], [ -77.33014, 37.43936, 26.9 ], [ -77.33024, 37.43907, 27.3 ], [ -77.33034, 37.43848, 23.2 ], [ -77.33038, 37.43765, 23.8 ], [ -77.33041, 37.43682, 24.4 ], [ -77.33039, 37.43665, 23.7 ], [ -77.33028, 37.43647, 22.3 ], [ -77.32997, 37.43624, 20.2 ], [ -77.32993, 37.43619, 19.8 ], [ -77.32987, 37.4361, 19.1 ], [ -77.32985, 37.43584, 17.8 ], [ -77.32982, 37.43577, 17.7 ], [ -77.32976, 37.4357, 17.6 ], [ -77.32941, 37.43546, 17.4 ], [ -77.32905, 37.43543, 17.1 ], [ -77.32895, 37.43539, 17.1 ], [ -77.32888, 37.43533, 17.1 ], [ -77.32885, 37.43522, 17.0 ], [ -77.32885, 37.43516, 17.0 ], [ -77.32892, 37.43496, 17.2 ], [ -77.32891, 37.43489, 17.1 ], [ -77.32882, 37.43479, 17.0 ], [ -77.32865, 37.43471, 16.7 ], [ -77.32853, 37.43459, 16.5 ], [ -77.32847, 37.43432, 16.3 ], [ -77.3283, 37.43417, 15.9 ], [ -77.32748, 37.43378, 15.3 ], [ -77.32665, 37.43338, 15.0 ], [ -77.32656, 37.43332, 14.9 ], [ -77.32648, 37.43323, 14.9 ], [ -77.32635, 37.43313, 15.2 ], [ -77.32625, 37.43309, 15.4 ], [ -77.32542, 37.43281, 17.1 ], [ -77.32482, 37.43266, 18.2 ], [ -77.32461, 37.43263, 18.6 ], [ -77.32365, 37.43242, 20.5 ], [ -77.32268, 37.43221, 17.0 ], [ -77.32172, 37.432, 17.7 ], [ -77.32098, 37.43185, 19.9 ], [ -77.32024, 37.4317, 19.5 ], [ -77.31936, 37.43155, 17.9 ], [ -77.31877, 37.43142, 18.7 ], [ -77.31818, 37.43129, 18.4 ], [ -77.31738, 37.43113, 19.0 ], [ -77.31659, 37.43097, 18.9 ], [ -77.31579, 37.43081, 19.1 ], [ -77.31525, 37.43067, 18.4 ], [ -77.3147, 37.43053, 17.6 ], [ -77.31442, 37.43044, 17.0 ], [ -77.31374, 37.43014, 17.7 ], [ -77.31306, 37.42983, 17.5 ], [ -77.31222, 37.42949, 16.3 ], [ -77.31137, 37.42915, 16.3 ], [ -77.31052, 37.4288, 20.4 ], [ -77.30967, 37.42846, 18.2 ], [ -77.30886, 37.42814, 16.9 ], [ -77.30805, 37.42781, 14.5 ], [ -77.30742, 37.42759, 13.1 ], [ -77.30664, 37.42736, 12.5 ], [ -77.30608, 37.42723, 12.5 ], [ -77.30553, 37.4271, 11.8 ], [ -77.30485, 37.42696, 11.4 ], [ -77.30445, 37.42692, 11.4 ], [ -77.30436, 37.42687, 11.4 ], [ -77.30434, 37.42682, 11.4 ], [ -77.30438, 37.42664, 11.1 ], [ -77.30432, 37.42657, 11.1 ], [ -77.30427, 37.42656, 11.1 ], [ -77.30406, 37.42655, 11.0 ], [ -77.30365, 37.42648, 11.2 ], [ -77.30265, 37.42625, 10.0 ], [ -77.30165, 37.42602, 9.3 ], [ -77.30121, 37.42587, 9.6 ], [ -77.30075, 37.42551, 9.2 ], [ -77.3005, 37.42541, 9.8 ], [ -77.30024, 37.42522, 11.0 ], [ -77.30001, 37.42501, 11.7 ], [ -77.29985, 37.42478, 11.9 ], [ -77.29952, 37.42444, 12.0 ], [ -77.29914, 37.42365, 10.8 ], [ -77.29906, 37.42327, 10.3 ], [ -77.29893, 37.42311, 9.9 ], [ -77.29886, 37.42305, 9.5 ], [ -77.29879, 37.42298, 9.1 ], [ -77.29867, 37.42276, 8.6 ], [ -77.29846, 37.42246, 6.6 ], [ -77.2983, 37.42215, 5.4 ], [ -77.29802, 37.4218, 5.2 ], [ -77.29778, 37.42159, 4.8 ], [ -77.29758, 37.42137, 3.8 ], [ -77.29725, 37.42091, 4.1 ], [ -77.2971, 37.4207, 4.3 ], [ -77.29666, 37.42012, 4.8 ], [ -77.29622, 37.41955, 7.2 ], [ -77.29596, 37.41924, 7.4 ], [ -77.29557, 37.4187, 7.5 ], [ -77.29519, 37.41815, 12.9 ], [ -77.29494, 37.41797, 10.1 ], [ -77.29469, 37.4177, 4.7 ], [ -77.29415, 37.41702, 10.1 ], [ -77.29361, 37.41635, 11.4 ], [ -77.29305, 37.41576, 14.4 ], [ -77.29257, 37.41541, 15.4 ], [ -77.29209, 37.41507, 15.7 ], [ -77.29148, 37.4147, 15.7 ], [ -77.29074, 37.41413, 15.7 ], [ -77.29, 37.41356, 15.8 ], [ -77.28926, 37.41299, 15.8 ], [ -77.2888, 37.4127, 15.7 ], [ -77.28834, 37.41241, 15.5 ], [ -77.28776, 37.41199, 13.4 ], [ -77.28719, 37.41156, 13.0 ], [ -77.28671, 37.41124, 14.7 ], [ -77.28624, 37.41092, 15.0 ], [ -77.2858, 37.41068, 14.9 ], [ -77.28531, 37.41036, 14.9 ], [ -77.28482, 37.41005, 14.9 ], [ -77.28407, 37.40964, 14.9 ], [ -77.28329, 37.40925, 14.9 ], [ -77.28263, 37.40894, 14.9 ], [ -77.28177, 37.40858, 14.9 ], [ -77.28111, 37.40833, 14.9 ], [ -77.28045, 37.40809, 14.9 ], [ -77.27984, 37.4079, 14.9 ], [ -77.27901, 37.40767, 14.9 ], [ -77.27802, 37.40745, 14.7 ], [ -77.27702, 37.40722, 13.8 ], [ -77.27604, 37.40707, 12.7 ], [ -77.27505, 37.40691, 14.0 ], [ -77.27407, 37.40675, 14.0 ], [ -77.27308, 37.40659, 12.3 ], [ -77.27204, 37.40657, 11.9 ], [ -77.27101, 37.40654, 12.3 ], [ -77.27063, 37.40647, 12.3 ], [ -77.27017, 37.40635, 12.2 ], [ -77.26945, 37.40604, 12.0 ], [ -77.2691, 37.40601, 12.0 ], [ -77.2688, 37.40595, 11.9 ], [ -77.26857, 37.40584, 11.8 ], [ -77.26797, 37.40579, 11.8 ], [ -77.26738, 37.40573, 11.9 ], [ -77.26659, 37.40562, 12.3 ], [ -77.26581, 37.4055, 12.3 ], [ -77.26553, 37.40542, 12.2 ], [ -77.26511, 37.4054, 12.2 ], [ -77.26492, 37.40537, 12.2 ], [ -77.26473, 37.40532, 12.2 ], [ -77.26462, 37.40526, 12.2 ], [ -77.26444, 37.40512, 12.2 ], [ -77.264, 37.40492, 12.2 ], [ -77.26368, 37.40482, 12.3 ], [ -77.26337, 37.4048, 12.5 ], [ -77.26284, 37.40459, 12.6 ], [ -77.2623, 37.40437, 12.9 ], [ -77.26155, 37.40404, 13.4 ], [ -77.26129, 37.40396, 13.7 ], [ -77.26086, 37.40373, 14.4 ], [ -77.26029, 37.40332, 15.0 ], [ -77.25984, 37.40304, 14.6 ], [ -77.25949, 37.40265, 14.0 ], [ -77.25913, 37.40227, 13.6 ], [ -77.25871, 37.40171, 13.0 ], [ -77.25858, 37.40148, 12.7 ], [ -77.25843, 37.40118, 13.2 ], [ -77.25783, 37.40049, 13.4 ], [ -77.25724, 37.3998, 13.3 ], [ -77.25706, 37.39965, 13.2 ], [ -77.25644, 37.39893, 13.3 ], [ -77.25583, 37.39822, 12.8 ], [ -77.25536, 37.39763, 12.3 ], [ -77.25489, 37.39705, 7.6 ], [ -77.25443, 37.39646, 1.4 ], [ -77.25396, 37.39588, 3.3 ], [ -77.25318, 37.39538, 4.9 ], [ -77.25227, 37.39506, 6.6 ], [ -77.25171, 37.39498, 8.7 ], [ -77.25116, 37.39491, 7.8 ], [ -77.25029, 37.39496, 6.2 ], [ -77.24944, 37.39507, 5.5 ], [ -77.2486, 37.39519, 3.5 ], [ -77.24805, 37.39523, 3.8 ], [ -77.24738, 37.39519, 3.7 ], [ -77.24674, 37.39502, 3.3 ], [ -77.24628, 37.39477, 1.7 ], [ -77.24575, 37.39429, 1.8 ], [ -77.24539, 37.39376, 1.4 ], [ -77.24504, 37.39323, 1.1 ], [ -77.24462, 37.39253, 1.8 ], [ -77.24421, 37.39182, 3.0 ], [ -77.24406, 37.39129, 2.5 ], [ -77.24404, 37.39077, 2.7 ], [ -77.24411, 37.3902, 3.0 ], [ -77.24435, 37.38943, 6.1 ], [ -77.24459, 37.38867, 14.7 ], [ -77.2447, 37.38783, 14.8 ], [ -77.24453, 37.38716, 15.8 ], [ -77.24415, 37.38657, 15.2 ], [ -77.24368, 37.38604, 14.8 ], [ -77.24322, 37.38551, 13.5 ], [ -77.24276, 37.38498, 12.3 ], [ -77.2425, 37.38448, 15.1 ], [ -77.24225, 37.38397, 12.6 ], [ -77.24199, 37.38324, 15.1 ], [ -77.24173, 37.38251, 16.0 ], [ -77.24147, 37.38178, 15.8 ], [ -77.24107, 37.38112, 13.8 ], [ -77.24039, 37.3805, 14.0 ], [ -77.2397, 37.38015, 13.8 ], [ -77.23889, 37.37998, 13.5 ], [ -77.23809, 37.3798, 14.3 ], [ -77.23716, 37.37961, 14.7 ], [ -77.23623, 37.37943, 14.8 ], [ -77.23562, 37.37925, 14.9 ], [ -77.23501, 37.37906, 15.4 ], [ -77.23444, 37.37884, 15.5 ], [ -77.23387, 37.37863, 14.9 ], [ -77.23326, 37.37843, 15.2 ], [ -77.23265, 37.37824, 15.2 ], [ -77.2317, 37.37807, 15.2 ], [ -77.23064, 37.37792, 15.2 ], [ -77.22981, 37.37772, 14.5 ], [ -77.22898, 37.37753, 14.6 ], [ -77.22815, 37.37733, 15.8 ], [ -77.22732, 37.37717, 15.4 ], [ -77.22648, 37.37702, 14.9 ], [ -77.22581, 37.37683, 15.5 ], [ -77.22528, 37.37658, 16.5 ], [ -77.2249, 37.37633, 17.2 ], [ -77.2244, 37.37587, 17.3 ], [ -77.2241, 37.37544, 20.4 ], [ -77.22387, 37.37497, 23.2 ], [ -77.22368, 37.37435, 24.4 ], [ -77.22368, 37.37373, 23.4 ], [ -77.22381, 37.37293, 21.4 ], [ -77.22395, 37.37213, 19.7 ], [ -77.22409, 37.37132, 19.5 ], [ -77.22422, 37.37052, 19.6 ], [ -77.22436, 37.36972, 21.4 ], [ -77.22449, 37.36892, 22.7 ], [ -77.22463, 37.36812, 18.8 ], [ -77.22477, 37.36732, 16.4 ], [ -77.2249, 37.36652, 18.9 ], [ -77.22535, 37.36572, 22.5 ], [ -77.2258, 37.36492, 20.7 ], [ -77.22625, 37.36412, 19.9 ], [ -77.22644, 37.36351, 23.6 ], [ -77.22646, 37.3629, 26.7 ], [ -77.22647, 37.36228, 28.8 ], [ -77.22648, 37.36167, 27.9 ], [ -77.22665, 37.361, 25.1 ], [ -77.22681, 37.36064, 23.4 ], [ -77.22719, 37.3598, 21.8 ], [ -77.22756, 37.35897, 20.1 ], [ -77.22773, 37.35848, 18.0 ], [ -77.22773, 37.35802, 15.4 ], [ -77.22765, 37.35737, 12.6 ], [ -77.22756, 37.35671, 12.7 ], [ -77.22769, 37.35624, 12.7 ], [ -77.22782, 37.35577, 12.8 ], [ -77.22813, 37.35529, 14.4 ], [ -77.22844, 37.35482, 16.0 ], [ -77.2288, 37.35424, 16.9 ], [ -77.22917, 37.35366, 16.9 ], [ -77.22953, 37.35309, 16.5 ], [ -77.2298, 37.35243, 15.7 ], [ -77.23007, 37.35176, 12.1 ], [ -77.23034, 37.3511, 8.8 ], [ -77.23051, 37.35049, 9.4 ], [ -77.23068, 37.34988, 11.2 ], [ -77.23085, 37.34928, 12.8 ], [ -77.23083, 37.34871, 14.6 ], [ -77.23064, 37.34795, 13.7 ], [ -77.22997, 37.34743, 15.5 ], [ -77.22913, 37.34699, 17.6 ], [ -77.22828, 37.34655, 19.5 ], [ -77.22743, 37.34611, 17.6 ], [ -77.22659, 37.34567, 16.0 ], [ -77.22574, 37.34523, 15.4 ], [ -77.2249, 37.34477, 14.4 ], [ -77.22407, 37.34432, 18.1 ], [ -77.22323, 37.34386, 19.7 ], [ -77.22239, 37.3434, 19.7 ], [ -77.22155, 37.34294, 19.7 ], [ -77.22071, 37.34248, 19.7 ], [ -77.21987, 37.34202, 19.8 ], [ -77.21903, 37.34157, 20.9 ], [ -77.21864, 37.34138, 21.7 ], [ -77.2183, 37.34134, 21.2 ], [ -77.2172, 37.34132, 21.2 ], [ -77.21611, 37.3413, 20.1 ], [ -77.21502, 37.34128, 17.2 ], [ -77.21392, 37.34126, 14.6 ], [ -77.21283, 37.34123, 14.6 ], [ -77.21173, 37.34121, 14.5 ], [ -77.21064, 37.34119, 14.3 ], [ -77.20953, 37.34114, 12.6 ], [ -77.20843, 37.34109, 11.9 ], [ -77.20802, 37.341, 11.6 ], [ -77.20759, 37.3408, 11.7 ], [ -77.20716, 37.34056, 11.1 ], [ -77.20682, 37.34029, 10.4 ], [ -77.20654, 37.33996, 11.6 ], [ -77.20617, 37.33917, 9.6 ], [ -77.2058, 37.33838, 8.5 ], [ -77.20542, 37.33759, 8.5 ], [ -77.20503, 37.33724, 13.9 ], [ -77.20463, 37.33689, 14.6 ], [ -77.20369, 37.33652, 15.3 ], [ -77.20279, 37.33621, 16.0 ], [ -77.20196, 37.33595, 17.3 ], [ -77.20137, 37.33579, 17.7 ], [ -77.2003, 37.33559, 17.7 ], [ -77.19923, 37.33539, 15.8 ], [ -77.1988, 37.33527, 15.7 ], [ -77.19824, 37.33502, 15.7 ], [ -77.19777, 37.33465, 15.7 ], [ -77.19723, 37.33408, 16.2 ], [ -77.19682, 37.33375, 16.6 ], [ -77.1964, 37.33341, 15.6 ], [ -77.19562, 37.33295, 14.7 ], [ -77.19483, 37.33249, 15.1 ], [ -77.19404, 37.33202, 13.5 ], [ -77.19301, 37.33166, 12.2 ], [ -77.19198, 37.3313, 11.4 ], [ -77.19127, 37.33113, 11.5 ], [ -77.19056, 37.33095, 11.3 ], [ -77.18972, 37.3309, 11.5 ], [ -77.18899, 37.33088, 10.3 ], [ -77.18828, 37.33072, 9.3 ], [ -77.18767, 37.33051, 8.8 ], [ -77.18705, 37.33029, 10.1 ], [ -77.18641, 37.3301, 9.1 ], [ -77.18577, 37.32991, 8.6 ], [ -77.18508, 37.32977, 8.6 ], [ -77.18454, 37.32969, 8.0 ], [ -77.18412, 37.32971, 7.7 ], [ -77.18368, 37.32981, 6.7 ], [ -77.18325, 37.33001, 5.9 ], [ -77.18284, 37.3301, 5.6 ], [ -77.18232, 37.33013, 5.5 ], [ -77.18204, 37.3301, 5.8 ], [ -77.18185, 37.33003, 6.2 ], [ -77.18187, 37.33032, 3.7 ], [ -77.18186, 37.33046, 3.0 ], [ -77.18177, 37.33105, 3.6 ], [ -77.18176, 37.3312, 3.6 ], [ -77.18159, 37.33182, 3.8 ], [ -77.18108, 37.3326, 7.4 ], [ -77.18057, 37.33337, 11.2 ], [ -77.18032, 37.3338, 12.7 ], [ -77.18008, 37.33424, 13.1 ], [ -77.17984, 37.33481, 14.3 ], [ -77.17959, 37.33538, 15.4 ], [ -77.17938, 37.33607, 12.6 ], [ -77.17906, 37.3365, 11.0 ], [ -77.1788, 37.33673, 10.6 ], [ -77.1781, 37.33706, 10.5 ], [ -77.17762, 37.33716, 10.7 ], [ -77.17686, 37.33722, 11.5 ], [ -77.17586, 37.33732, 12.8 ], [ -77.17565, 37.33735, 13.5 ], [ -77.17536, 37.33743, 15.1 ], [ -77.17466, 37.33771, 19.1 ], [ -77.17396, 37.338, 19.5 ], [ -77.1738, 37.33804, 19.4 ], [ -77.17303, 37.33816, 18.7 ], [ -77.17235, 37.3382, 18.6 ], [ -77.17167, 37.33825, 19.8 ], [ -77.17123, 37.33826, 20.8 ], [ -77.17076, 37.33824, 20.6 ], [ -77.1701, 37.33816, 22.0 ], [ -77.1696, 37.33805, 22.5 ], [ -77.1688, 37.33776, 22.8 ], [ -77.16818, 37.33749, 21.7 ], [ -77.1676, 37.33727, 21.6 ], [ -77.16702, 37.33705, 21.7 ], [ -77.1663, 37.33691, 21.7 ], [ -77.16546, 37.33683, 21.6 ], [ -77.16492, 37.3368, 22.2 ], [ -77.1643, 37.33674, 22.6 ], [ -77.16381, 37.33664, 22.7 ], [ -77.16275, 37.33635, 22.7 ], [ -77.1617, 37.33607, 23.1 ], [ -77.16065, 37.33578, 24.4 ], [ -77.15959, 37.3355, 24.9 ], [ -77.15854, 37.33521, 23.7 ], [ -77.15757, 37.33503, 22.9 ], [ -77.15661, 37.33486, 22.2 ], [ -77.15564, 37.33468, 21.7 ], [ -77.15467, 37.3345, 21.7 ], [ -77.1537, 37.33432, 21.7 ], [ -77.15289, 37.33415, 21.7 ], [ -77.15249, 37.33398, 21.7 ], [ -77.15183, 37.33375, 21.7 ], [ -77.15118, 37.33353, 21.7 ], [ -77.15062, 37.33329, 21.7 ], [ -77.15035, 37.33314, 21.7 ], [ -77.14996, 37.3329, 21.7 ], [ -77.14929, 37.33242, 21.7 ], [ -77.1492, 37.33233, 22.0 ], [ -77.14917, 37.3321, 22.6 ], [ -77.14913, 37.33201, 22.7 ], [ -77.14902, 37.33194, 22.7 ], [ -77.14854, 37.33171, 22.6 ], [ -77.1485, 37.33166, 22.6 ], [ -77.1484, 37.33137, 23.3 ], [ -77.14832, 37.33131, 23.3 ], [ -77.14785, 37.33114, 22.8 ], [ -77.14748, 37.33096, 22.6 ], [ -77.14699, 37.33089, 21.7 ], [ -77.14655, 37.33065, 21.0 ], [ -77.14599, 37.33038, 20.6 ], [ -77.14535, 37.33015, 20.7 ], [ -77.14471, 37.32992, 20.6 ], [ -77.14381, 37.32968, 21.6 ], [ -77.14337, 37.32963, 21.6 ], [ -77.14279, 37.32959, 20.9 ], [ -77.1423, 37.3296, 21.0 ], [ -77.14193, 37.32968, 21.0 ], [ -77.14097, 37.32998, 20.6 ], [ -77.14031, 37.33021, 20.7 ], [ -77.13965, 37.33044, 21.6 ], [ -77.13866, 37.33077, 23.2 ], [ -77.13768, 37.33109, 24.2 ], [ -77.1367, 37.33141, 23.2 ], [ -77.13572, 37.33174, 22.7 ], [ -77.13474, 37.33206, 21.3 ], [ -77.13376, 37.33238, 20.8 ], [ -77.13278, 37.3327, 20.7 ], [ -77.1318, 37.33303, 20.7 ], [ -77.13082, 37.33335, 20.4 ], [ -77.12972, 37.3334, 20.3 ], [ -77.12863, 37.33345, 19.7 ], [ -77.12754, 37.3335, 20.1 ], [ -77.12645, 37.33355, 19.9 ], [ -77.12536, 37.3336, 19.2 ], [ -77.12427, 37.33365, 17.9 ], [ -77.12318, 37.3337, 15.4 ], [ -77.12209, 37.33375, 13.7 ], [ -77.121, 37.3338, 13.1 ], [ -77.11991, 37.33385, 13.8 ], [ -77.11882, 37.3339, 13.0 ], [ -77.11773, 37.33395, 13.1 ], [ -77.11664, 37.33401, 12.0 ], [ -77.11555, 37.33406, 12.7 ], [ -77.11528, 37.33403, 12.2 ], [ -77.11443, 37.33381, 12.3 ], [ -77.11358, 37.3336, 13.8 ], [ -77.11255, 37.33326, 14.6 ], [ -77.11152, 37.33293, 16.8 ], [ -77.11049, 37.33259, 21.7 ], [ -77.10947, 37.33226, 21.6 ], [ -77.10853, 37.33211, 21.7 ], [ -77.10759, 37.33196, 21.9 ], [ -77.10692, 37.33184, 21.8 ], [ -77.10626, 37.33172, 21.4 ], [ -77.1053, 37.33163, 20.6 ], [ -77.10464, 37.33166, 18.1 ], [ -77.10398, 37.33169, 16.4 ], [ -77.10345, 37.33167, 14.7 ], [ -77.10275, 37.33176, 15.5 ], [ -77.1018, 37.33195, 15.6 ], [ -77.10085, 37.33214, 13.7 ], [ -77.09995, 37.33228, 14.7 ], [ -77.09946, 37.33229, 14.7 ], [ -77.0985, 37.33242, 13.3 ], [ -77.09754, 37.33256, 15.1 ], [ -77.09683, 37.33277, 17.3 ], [ -77.09605, 37.33308, 13.6 ], [ -77.0953, 37.33357, 9.4 ], [ -77.09476, 37.33408, 12.6 ], [ -77.09421, 37.33459, 9.7 ], [ -77.09367, 37.3351, 9.8 ], [ -77.09307, 37.33573, 12.1 ], [ -77.09246, 37.33635, 13.9 ], [ -77.09186, 37.33698, 9.4 ], [ -77.09125, 37.3376, 8.5 ], [ -77.09065, 37.33823, 9.7 ], [ -77.08997, 37.33867, 8.1 ], [ -77.08911, 37.33902, 8.6 ], [ -77.08845, 37.33917, 10.7 ], [ -77.08744, 37.3392, 11.1 ], [ -77.08641, 37.33924, 16.2 ], [ -77.08538, 37.33927, 16.5 ], [ -77.08435, 37.33931, 13.6 ], [ -77.08332, 37.33935, 13.8 ], [ -77.0823, 37.33939, 13.7 ], [ -77.08127, 37.33943, 14.1 ], [ -77.08069, 37.33959, 15.6 ], [ -77.08012, 37.33975, 16.1 ], [ -77.0799, 37.33986, 15.8 ], [ -77.07973, 37.33992, 15.8 ], [ -77.0787, 37.34018, 13.6 ], [ -77.07768, 37.34045, 10.7 ], [ -77.07703, 37.34061, 11.8 ], [ -77.07628, 37.3408, 11.9 ], [ -77.07553, 37.34098, 10.7 ], [ -77.07455, 37.34122, 10.3 ], [ -77.07357, 37.34146, 10.8 ], [ -77.07316, 37.34158, 13.7 ], [ -77.07298, 37.34166, 13.8 ], [ -77.07275, 37.34185, 13.8 ], [ -77.07209, 37.34256, 8.2 ], [ -77.07203, 37.34249, 8.8 ], [ -77.0717, 37.34293, 6.9 ], [ -77.07136, 37.34338, 6.5 ], [ -77.0712, 37.34378, 3.9 ], [ -77.07108, 37.34382, 3.2 ], [ -77.07043, 37.34386, 1.5 ], [ -77.06994, 37.34386, 1.1 ], [ -77.06922, 37.34384, 1.2 ], [ -77.06854, 37.34375, 3.4 ], [ -77.06778, 37.34348, 8.3 ], [ -77.06703, 37.34322, 9.0 ], [ -77.06615, 37.34289, 8.3 ], [ -77.06527, 37.34256, 7.0 ], [ -77.06439, 37.34224, 8.3 ], [ -77.0635, 37.34191, 9.5 ], [ -77.06262, 37.34158, 7.9 ], [ -77.06174, 37.34126, 8.8 ], [ -77.06169, 37.34121, 9.4 ], [ -77.0616, 37.34117, 10.2 ], [ -77.06138, 37.34134, 10.5 ], [ -77.06057, 37.34107, 14.8 ], [ -77.05973, 37.34088, 13.1 ], [ -77.0589, 37.34068, 13.9 ], [ -77.05843, 37.34061, 12.3 ], [ -77.05786, 37.34048, 9.4 ], [ -77.05703, 37.34039, 12.7 ], [ -77.05627, 37.34026, 17.7 ], [ -77.0555, 37.34012, 19.3 ], [ -77.05463, 37.33978, 21.0 ], [ -77.05414, 37.33948, 22.3 ], [ -77.05371, 37.33913, 24.0 ], [ -77.05313, 37.3385, 21.8 ], [ -77.05263, 37.33779, 24.7 ], [ -77.05213, 37.33708, 27.7 ], [ -77.05163, 37.33636, 25.3 ], [ -77.05124, 37.33599, 24.9 ], [ -77.05078, 37.33576, 23.3 ], [ -77.05022, 37.33554, 22.6 ], [ -77.04949, 37.33537, 27.0 ], [ -77.04887, 37.33537, 29.1 ], [ -77.04826, 37.33543, 29.8 ], [ -77.04728, 37.33564, 25.1 ], [ -77.0463, 37.33584, 26.1 ], [ -77.04532, 37.33605, 25.7 ], [ -77.0443, 37.33629, 22.1 ], [ -77.04328, 37.33652, 23.1 ], [ -77.04226, 37.33676, 21.8 ], [ -77.04124, 37.33699, 18.6 ], [ -77.04022, 37.33722, 17.9 ], [ -77.0392, 37.33746, 18.6 ], [ -77.03836, 37.33757, 18.4 ], [ -77.03752, 37.33769, 15.9 ], [ -77.03668, 37.3378, 13.9 ], [ -77.03584, 37.33792, 13.4 ], [ -77.03505, 37.33801, 14.5 ], [ -77.03416, 37.33822, 16.7 ], [ -77.03327, 37.33843, 17.7 ], [ -77.03238, 37.33863, 19.8 ], [ -77.03149, 37.33884, 19.6 ], [ -77.0306, 37.33905, 21.7 ], [ -77.02972, 37.33939, 25.7 ], [ -77.02917, 37.33958, 28.1 ], [ -77.02842, 37.33956, 30.3 ], [ -77.02762, 37.33963, 35.2 ], [ -77.02651, 37.33969, 36.7 ], [ -77.02539, 37.33975, 32.6 ], [ -77.02428, 37.33981, 32.2 ], [ -77.02356, 37.33983, 28.8 ], [ -77.02283, 37.33984, 27.3 ], [ -77.02171, 37.33979, 23.8 ], [ -77.02078, 37.33949, 21.2 ], [ -77.02054, 37.33933, 21.4 ], [ -77.02017, 37.33908, 22.3 ], [ -77.01959, 37.33857, 23.8 ], [ -77.01935, 37.33806, 24.0 ], [ -77.01911, 37.33755, 22.8 ], [ -77.01887, 37.33708, 25.1 ], [ -77.01863, 37.33661, 25.2 ], [ -77.01825, 37.33611, 22.1 ], [ -77.01766, 37.33564, 23.2 ], [ -77.01681, 37.33511, 17.8 ], [ -77.01593, 37.33462, 14.4 ], [ -77.01504, 37.33412, 15.4 ], [ -77.01415, 37.33362, 15.1 ], [ -77.01327, 37.33313, 15.5 ], [ -77.01238, 37.33263, 18.2 ], [ -77.01178, 37.33214, 18.7 ], [ -77.01116, 37.33147, 18.1 ], [ -77.01055, 37.3308, 15.1 ], [ -77.00993, 37.33016, 13.2 ], [ -77.00932, 37.32953, 14.7 ], [ -77.0087, 37.32889, 13.5 ], [ -77.00809, 37.32826, 14.4 ], [ -77.00747, 37.32762, 13.2 ], [ -77.00686, 37.32699, 13.6 ], [ -77.00625, 37.32635, 13.6 ], [ -77.00566, 37.32601, 15.0 ], [ -77.00508, 37.32567, 17.2 ], [ -77.00434, 37.32553, 19.6 ], [ -77.0036, 37.32539, 20.8 ], [ -77.00283, 37.32532, 19.5 ], [ -77.00207, 37.32525, 19.7 ], [ -77.00182, 37.32525, 19.1 ], [ -77.00075, 37.32538, 18.5 ], [ -76.99969, 37.3255, 17.8 ], [ -76.99862, 37.32563, 14.6 ], [ -76.99816, 37.32565, 14.0 ], [ -76.99766, 37.3257, 13.9 ], [ -76.99753, 37.32581, 13.9 ], [ -76.99718, 37.32585, 13.8 ], [ -76.99671, 37.32589, 13.7 ], [ -76.99612, 37.32592, 13.7 ], [ -76.99516, 37.32602, 13.1 ], [ -76.99404, 37.32616, 15.1 ], [ -76.99293, 37.32629, 15.5 ], [ -76.99181, 37.32642, 16.6 ], [ -76.9907, 37.32655, 18.1 ], [ -76.98958, 37.32668, 17.8 ], [ -76.98847, 37.32681, 17.8 ], [ -76.98736, 37.3269, 16.7 ], [ -76.98679, 37.32688, 15.7 ], [ -76.98622, 37.32686, 15.8 ], [ -76.98561, 37.32677, 16.6 ], [ -76.98501, 37.32667, 16.7 ], [ -76.98431, 37.32648, 17.9 ], [ -76.98332, 37.32606, 15.9 ], [ -76.98234, 37.32564, 13.7 ], [ -76.9814, 37.32521, 13.7 ], [ -76.98045, 37.32478, 12.7 ], [ -76.97951, 37.32435, 12.7 ], [ -76.97856, 37.32393, 13.5 ], [ -76.97762, 37.3235, 12.6 ], [ -76.97668, 37.32307, 11.3 ], [ -76.97611, 37.32297, 9.6 ], [ -76.97582, 37.32282, 9.1 ], [ -76.97534, 37.32234, 8.0 ], [ -76.97462, 37.32176, 8.2 ], [ -76.9739, 37.32119, 10.2 ], [ -76.97318, 37.32061, 11.5 ], [ -76.97247, 37.32003, 11.2 ], [ -76.97175, 37.31945, 12.6 ], [ -76.97103, 37.31887, 10.9 ], [ -76.97031, 37.3183, 9.2 ], [ -76.9696, 37.31772, 8.9 ], [ -76.96911, 37.31724, 11.0 ], [ -76.96862, 37.31676, 12.2 ], [ -76.96809, 37.31599, 12.7 ], [ -76.96761, 37.31518, 12.7 ], [ -76.96713, 37.31438, 12.4 ], [ -76.96665, 37.31358, 10.7 ], [ -76.96592, 37.31297, 12.0 ], [ -76.96535, 37.31234, 13.2 ], [ -76.96478, 37.31171, 15.0 ], [ -76.96421, 37.31109, 16.6 ], [ -76.96365, 37.31046, 17.6 ], [ -76.96308, 37.30983, 16.0 ], [ -76.96251, 37.30921, 16.7 ], [ -76.96195, 37.30858, 17.6 ], [ -76.96145, 37.30812, 17.7 ], [ -76.96094, 37.30767, 17.7 ], [ -76.96044, 37.30721, 17.4 ], [ -76.95996, 37.30688, 17.1 ], [ -76.95948, 37.30655, 17.2 ], [ -76.95872, 37.30605, 17.5 ], [ -76.95796, 37.30554, 17.7 ], [ -76.95721, 37.30504, 18.7 ], [ -76.95645, 37.30454, 18.2 ], [ -76.95569, 37.30404, 17.4 ], [ -76.95477, 37.30353, 17.7 ], [ -76.95386, 37.30303, 19.3 ], [ -76.95294, 37.30252, 18.8 ], [ -76.95202, 37.30202, 19.7 ], [ -76.9511, 37.30151, 21.6 ], [ -76.95019, 37.30101, 20.8 ], [ -76.94922, 37.30058, 19.7 ], [ -76.94826, 37.30016, 19.8 ], [ -76.9473, 37.29973, 20.6 ], [ -76.94633, 37.2993, 19.8 ], [ -76.94537, 37.29888, 18.7 ], [ -76.94456, 37.29845, 17.7 ], [ -76.94375, 37.29802, 17.7 ], [ -76.94294, 37.29759, 18.1 ], [ -76.94212, 37.29708, 18.4 ], [ -76.94129, 37.29658, 19.7 ], [ -76.94047, 37.29607, 18.7 ], [ -76.93964, 37.29557, 17.3 ], [ -76.93882, 37.29507, 16.7 ], [ -76.93799, 37.29456, 16.7 ], [ -76.93716, 37.29406, 17.9 ], [ -76.93634, 37.29355, 17.7 ], [ -76.93551, 37.29305, 17.7 ], [ -76.93469, 37.29254, 17.2 ], [ -76.93386, 37.29204, 15.7 ], [ -76.93364, 37.29193, 15.7 ], [ -76.93279, 37.29144, 15.7 ], [ -76.93193, 37.29095, 16.7 ], [ -76.93108, 37.29046, 14.8 ], [ -76.93022, 37.28997, 13.4 ], [ -76.9294, 37.28939, 11.9 ], [ -76.92857, 37.28882, 10.2 ], [ -76.92775, 37.28825, 12.3 ], [ -76.92692, 37.28767, 12.4 ], [ -76.9261, 37.2871, 12.7 ], [ -76.92527, 37.28653, 13.7 ], [ -76.92481, 37.28625, 13.7 ], [ -76.924, 37.28569, 13.7 ], [ -76.92319, 37.28514, 13.7 ], [ -76.92238, 37.28458, 14.9 ], [ -76.92178, 37.28419, 13.8 ], [ -76.92118, 37.2838, 14.9 ], [ -76.92058, 37.28342, 15.8 ], [ -76.92005, 37.28304, 15.9 ], [ -76.91951, 37.28267, 15.7 ], [ -76.91903, 37.28235, 15.6 ], [ -76.91855, 37.28204, 14.7 ], [ -76.91776, 37.2815, 13.8 ], [ -76.91696, 37.28096, 11.7 ], [ -76.91617, 37.28042, 11.9 ], [ -76.91537, 37.27988, 15.4 ], [ -76.91458, 37.27934, 14.3 ], [ -76.91378, 37.2788, 12.8 ], [ -76.91299, 37.27826, 13.2 ], [ -76.91219, 37.27772, 13.7 ], [ -76.91162, 37.27735, 14.1 ], [ -76.91104, 37.27697, 14.7 ], [ -76.91037, 37.27651, 14.7 ], [ -76.9097, 37.27605, 15.7 ], [ -76.90903, 37.27559, 15.8 ], [ -76.90837, 37.27514, 15.7 ], [ -76.90759, 37.27461, 15.5 ], [ -76.90681, 37.27409, 14.7 ], [ -76.90603, 37.27357, 14.6 ], [ -76.90526, 37.27305, 13.8 ], [ -76.90478, 37.27275, 13.8 ], [ -76.9043, 37.27245, 14.7 ], [ -76.90362, 37.27196, 14.0 ], [ -76.90294, 37.27148, 13.6 ], [ -76.90227, 37.27101, 13.7 ], [ -76.9016, 37.27055, 14.1 ], [ -76.90093, 37.27009, 14.7 ], [ -76.90027, 37.26963, 16.3 ], [ -76.89958, 37.26918, 17.9 ], [ -76.8989, 37.26872, 19.0 ], [ -76.89833, 37.26833, 18.7 ], [ -76.89776, 37.26794, 17.0 ], [ -76.89705, 37.2675, 15.5 ], [ -76.89633, 37.26706, 14.8 ], [ -76.89576, 37.26665, 14.3 ], [ -76.89518, 37.26625, 14.2 ], [ -76.89461, 37.26584, 11.7 ], [ -76.89394, 37.26538, 10.9 ], [ -76.89327, 37.26493, 10.5 ], [ -76.89259, 37.26448, 10.7 ], [ -76.89191, 37.26403, 11.5 ], [ -76.89124, 37.26359, 13.3 ], [ -76.89035, 37.26312, 15.6 ], [ -76.88935, 37.26269, 17.2 ], [ -76.88838, 37.26239, 15.6 ], [ -76.88767, 37.26224, 15.9 ], [ -76.88696, 37.26209, 15.7 ], [ -76.88626, 37.26201, 15.1 ], [ -76.88567, 37.26201, 13.9 ], [ -76.88508, 37.26201, 13.7 ], [ -76.88414, 37.2621, 12.2 ], [ -76.88353, 37.26222, 10.2 ], [ -76.88274, 37.26241, 8.0 ], [ -76.88196, 37.26259, 5.1 ], [ -76.88118, 37.26277, 5.0 ], [ -76.88021, 37.263, 4.9 ], [ -76.87924, 37.26323, 4.9 ], [ -76.87826, 37.26346, 4.8 ], [ -76.87729, 37.26369, 4.7 ], [ -76.87631, 37.26392, 4.7 ], [ -76.87534, 37.26415, 4.6 ], [ -76.87437, 37.26438, 4.5 ], [ -76.87339, 37.26461, 4.5 ], [ -76.87293, 37.2647, 4.4 ], [ -76.87261, 37.26475, 4.4 ], [ -76.87244, 37.26478, 4.4 ], [ -76.8716, 37.26484, 4.4 ], [ -76.87117, 37.26492, 4.7 ], [ -76.87082, 37.26494, 4.7 ], [ -76.87082, 37.2651, 4.7 ], [ -76.87086, 37.26529, 4.6 ], [ -76.87094, 37.26543, 4.5 ], [ -76.87104, 37.26554, 4.5 ], [ -76.87117, 37.26565, 4.3 ], [ -76.8714, 37.26575, 4.2 ], [ -76.87163, 37.2658, 3.9 ], [ -76.87191, 37.2658, 3.7 ], [ -76.87212, 37.26575, 4.0 ], [ -76.87238, 37.26566, 4.6 ], [ -76.87262, 37.26559, 4.6 ], [ -76.87335, 37.26571, 3.3 ], [ -76.87329, 37.26612, 3.6 ], [ -76.87325, 37.26623, 3.4 ], [ -76.87316, 37.26635, 2.8 ], [ -76.87283, 37.26664, 1.7 ], [ -76.87276, 37.26678, 1.6 ], [ -76.8727, 37.26735, 3.2 ], [ -76.87265, 37.26793, 4.7 ], [ -76.87284, 37.26797, 4.6 ], [ -76.87353, 37.26822, 3.2 ], [ -76.87378, 37.2683, 3.1 ], [ -76.8741, 37.26837, 3.1 ], [ -76.87419, 37.26848, 3.1 ], [ -76.87436, 37.26858, 3.7 ], [ -76.87491, 37.26877, 3.9 ], [ -76.87512, 37.26886, 3.1 ], [ -76.87539, 37.26894, 2.7 ], [ -76.87571, 37.2691, 3.6 ], [ -76.876, 37.26927, 2.8 ] ] ] } },
{ "type": "Feature", "properties": { "name": "Scuffletown\nPark", "type": "start" }, "geometry": { "type": "Point", "coordinates": [ -77.467246898464637, 37.555977920247187, 0.0 ] } },
{ "type": "Feature", "properties": { "name": "Shiplock\nPark", "type": "park" }, "geometry": { "type": "Point", "coordinates": [ -77.420908486575826, 37.526257258111109, 0.0 ] } },
{ "type": "Feature", "properties": { "name": "7-Eleven", "type": "convenience" }, "geometry": { "type": "Point", "coordinates": [ -77.403387677676349, 37.48940040936143, 0.0 ] } },
{ "type": "Feature", "properties": { "name": "Four Mile\nCreek Park", "type": "park" }, "geometry": { "type": "Point", "coordinates": [ -77.329176918658646, 37.435258030996174, 0.0 ] } },
{ "type": "Feature", "properties": { "name": "Cul's Courthouse\nGrille", "type": "restaurant" }, "geometry": { "type": "Point", "coordinates": [ -77.073014070576122, 37.341945375529413, 0.0 ] } },
{ "type": "Feature", "properties": { "name": "DFL Bridge", "type": "bridge" }, "geometry": { "type": "Point", "coordinates": [ -77.182923326603458, 37.330216423970008, 0.0 ] } },
{ "type": "Feature", "properties": { "name": "Chickahominy\nRiverfront Park", "type": "camp" }, "geometry": { "type": "Point", "coordinates": [ -76.875993864006958, 37.269272938199556, 0.0 ] } }
]
}
